<svg width="57" height="61" viewBox="0 0 57 61" fill="none" xmlns="http://www.w3.org/2000/svg">
<rect x="29.4252" y="16.6896" width="43.41" height="2.75808" rx="1.37904" transform="rotate(90 29.4252 16.6896)" fill="url(#paint0_linear_644_225)"/>
<g filter="url(#filter0_d_644_225)">
<circle cx="28.0461" cy="16.0461" r="8.04614" fill="#FE8DF9"/>
</g>
<defs>
<filter id="filter0_d_644_225" x="0" y="0" width="56.0923" height="56.0923" filterUnits="userSpaceOnUse" color-interpolation-filters="sRGB">
<feFlood flood-opacity="0" result="BackgroundImageFix"/>
<feColorMatrix in="SourceAlpha" type="matrix" values="0 0 0 0 0 0 0 0 0 0 0 0 0 0 0 0 0 0 127 0" result="hardAlpha"/>
<feOffset dy="12"/>
<feGaussianBlur stdDeviation="10"/>
<feColorMatrix type="matrix" values="0 0 0 0 0.996078 0 0 0 0 0.552941 0 0 0 0 0.976471 0 0 0 0.5 0"/>
<feBlend mode="normal" in2="BackgroundImageFix" result="effect1_dropShadow_644_225"/>
<feBlend mode="normal" in="SourceGraphic" in2="effect1_dropShadow_644_225" result="shape"/>
</filter>
<linearGradient id="paint0_linear_644_225" x1="38.1021" y1="19.4477" x2="75.8409" y2="19.4477" gradientUnits="userSpaceOnUse">
<stop stop-color="#5B4DC8"/>
<stop offset="1" stop-color="#5B4DC8" stop-opacity="0"/>
</linearGradient>
</defs>
</svg>
